{
  "project_info": {
    "project_number": "419766237114",
    "firebase_url": "https://tipoexamen-b9876.firebaseio.com",
    "project_id": "tipoexamen-b9876",
    "storage_bucket": "tipoexamen-b9876.appspot.com"
  },
  "client": [
    {
      "client_info": {
        "mobilesdk_app_id": "1:419766237114:android:98ed47ed3d52623d",
        "android_client_info": {
          "package_name": "com.example.pipe.tipoexamen"
        }
      },
      "oauth_client": [
        {
          "client_id": "419766237114-srhbns11nuskv3he914tl3nvgpbfdcta.apps.googleusercontent.com",
          "client_type": 1,
          "android_info": {
            "package_name": "com.example.pipe.tipoexamen",
            "certificate_hash": "1d604ac2addb209a01e976b98fb03db2dc2aea20"
          }
        },
        {
          "client_id": "419766237114-3rpgm4isf6onc3v0fjq1iudtinec0476.apps.googleusercontent.com",
          "client_type": 3
        }
      ],
      "api_key": [
        {
          "current_key": "AIzaSyDHogsrA5Jesv15UwmGgGT9-af4yKB8w2s"
        }
      ],
      "services": {
        "analytics_service": {
          "status": 1
        },
        "appinvite_service": {
          "status": 2,
          "other_platform_oauth_client": [
            {
              "client_id": "419766237114-3rpgm4isf6onc3v0fjq1iudtinec0476.apps.googleusercontent.com",
              "client_type": 3
            }
          ]
        },
        "ads_service": {
          "status": 2
        }
      }
    }
  ],
  "configuration_version": "1"
}